2024-03-01 00:07:51,288 - nitrado_logger - ERROR - Request error: 401 Client Error: Unauthorized for url: https://api.nitrado.net/services/server_id/gameservers
2024-03-01 00:07:51,430 - nitrado_logger - ERROR - Request error: 401 Client Error: Unauthorized for url: https://api.nitrado.net/services/server_id
2024-03-01 00:07:51,529 - nitrado_logger - ERROR - Request error: 404 Client Error: Not Found for url: https://api.nitrado.net/services/server_id/usage
2024-03-01 00:07:51,689 - nitrado_logger - ERROR - Request error: 401 Client Error: Unauthorized for url: https://api.nitrado.net/services/server_id/gameservers
